Sequential_Codes/waveforms.vcd
$date
	Sun Feb 22 19:18:58 2026
$end
$version
	Icarus Verilog
$end
$timescale
	1ns
$end
$scope module seq_tb $end
$var reg 1 ! clk $end
$upscope $end
$scope module seq_tb $end
$scope module dut $end
$scope module reg_file $end
$var wire 1 ! clk $end
$var wire 64 " read_data1 [63:0] $end
$var wire 64 # read_data2 [63:0] $end
$var wire 5 $ read_reg1 [4:0] $end
$var wire 5 % read_reg2 [4:0] $end
$var wire 1 & reg_write_en $end
$var wire 1 ' reset $end
$var wire 5 ( write_reg [4:0] $end
$var wire 64 ) write_data [63:0] $end
$var integer 32 * i [31:0] $end
$scope begin initialization $end
$upscope $end
$upscope $end
$upscope $end
$upscope $end
$scope module seq_tb $end
$scope module dut $end
$scope module data_mem $end
$var wire 1 + MemRead $end
$var wire 1 , MemWrite $end
$var wire 64 - address [63:0] $end
$var wire 1 ! clk $end
$var wire 1 ' reset $end
$var wire 64 . write_data [63:0] $end
$var reg 64 / read_data [63:0] $end
$var integer 32 0 i [31:0] $end
$upscope $end
$upscope $end
$upscope $end
$scope module seq_tb $end
$scope module dut $end
$scope module data_mem $end
$var reg 8 1 \data_reg[0] [7:0] $end
$upscope $end
$upscope $end
$upscope $end
$scope module seq_tb $end
$scope module dut $end
$scope module data_mem $end
$var reg 8 2 \data_reg[1] [7:0] $end
$upscope $end
$upscope $end
$upscope $end
$scope module seq_tb $end
$scope module dut $end
$scope module data_mem $end
$var reg 8 3 \data_reg[2] [7:0] $end
$upscope $end
$upscope $end
$upscope $end
$scope module seq_tb $end
$scope module dut $end
$scope module data_mem $end
$var reg 8 4 \data_reg[3] [7:0] $end
$upscope $end
$upscope $end
$upscope $end
$scope module seq_tb $end
$scope module dut $end
$scope module data_mem $end
$var reg 8 5 \data_reg[4] [7:0] $end
$upscope $end
$upscope $end
$upscope $end
$scope module seq_tb $end
$scope module dut $end
$scope module data_mem $end
$var reg 8 6 \data_reg[5] [7:0] $end
$upscope $end
$upscope $end
$upscope $end
$scope module seq_tb $end
$scope module dut $end
$scope module data_mem $end
$var reg 8 7 \data_reg[6] [7:0] $end
$upscope $end
$upscope $end
$upscope $end
$scope module seq_tb $end
$scope module dut $end
$scope module data_mem $end
$var reg 8 8 \data_reg[7] [7:0] $end
$upscope $end
$upscope $end
$upscope $end
$scope module seq_tb $end
$scope module dut $end
$scope module data_mem $end
$var reg 8 9 \data_reg[8] [7:0] $end
$upscope $end
$upscope $end
$upscope $end
$scope module seq_tb $end
$scope module dut $end
$scope module data_mem $end
$var reg 8 : \data_reg[9] [7:0] $end
$upscope $end
$upscope $end
$upscope $end
$scope module seq_tb $end
$scope module dut $end
$scope module data_mem $end
$var reg 8 ; \data_reg[10] [7:0] $end
$upscope $end
$upscope $end
$upscope $end
$scope module seq_tb $end
$scope module dut $end
$scope module data_mem $end
$var reg 8 < \data_reg[11] [7:0] $end
$upscope $end
$upscope $end
$upscope $end
$scope module seq_tb $end
$scope module dut $end
$scope module data_mem $end
$var reg 8 = \data_reg[12] [7:0] $end
$upscope $end
$upscope $end
$upscope $end
$scope module seq_tb $end
$scope module dut $end
$scope module data_mem $end
$var reg 8 > \data_reg[13] [7:0] $end
$upscope $end
$upscope $end
$upscope $end
$scope module seq_tb $end
$scope module dut $end
$scope module data_mem $end
$var reg 8 ? \data_reg[14] [7:0] $end
$upscope $end
$upscope $end
$upscope $end
$scope module seq_tb $end
$scope module dut $end
$scope module data_mem $end
$var reg 8 @ \data_reg[15] [7:0] $end
$upscope $end
$upscope $end
$upscope $end
$scope module seq_tb $end
$scope module dut $end
$scope module reg_file $end
$var reg 64 A \reg_file[4] [63:0] $end
$upscope $end
$upscope $end
$upscope $end
$scope module seq_tb $end
$scope module dut $end
$scope module reg_file $end
$var reg 64 B \reg_file[5] [63:0] $end
$upscope $end
$upscope $end
$upscope $end
$enddefinitions $end
$comment Show the parameter values. $end
$dumpall
$end
#0
$dumpvars
bx B
bx A
bx @
bx ?
bx >
bx =
bx <
bx ;
bx :
bx 9
bx 8
bx 7
bx 6
bx 5
bx 4
bx 3
bx 2
bx 1
bx 0
b0 /
bx .
bx -
0,
0+
bx *
bx )
b10 (
1'
1&
b101 %
b0 $
bx #
bx "
0!
$end
#5
b101 )
b101 -
b0 B
b0 #
b0 .
b0 A
b0 "
b0 @
b0 ?
b0 >
b0 =
b0 <
b0 ;
b0 :
b0 9
b0 8
b0 7
b0 6
b0 5
b0 4
b0 3
b0 2
b0 1
b100000 *
b10000000000 0
1!
#10
0!
#15
b0 B
b0 A
b0 @
b0 ?
b0 >
b0 =
b0 <
b0 ;
b0 :
b0 9
b0 8
b0 7
b0 6
b0 5
b0 4
b0 3
b0 2
b0 1
b10000000000 0
b100000 *
1!
#20
0!
0'
#25
b1010 )
b1010 -
b11 (
b1010 %
1!
#30
0!
#35
b1111 )
b1111 -
b1 (
b1010 #
b1010 .
b11 %
b101 "
b10 $
1!
#40
0!
#45
b1111111111111111111111111111111111111111111111111111111111111011 )
b1111111111111111111111111111111111111111111111111111111111111011 -
b10 (
1!
#50
0!
#55
b1010 )
b1010 -
b100 (
b11 $
b1010 "
1!
#60
0!
#65
b101 (
b100 %
b1010 A
1!
#70
0!
#75
b1111111111111111111111111111111111111111111111111111111111111011 )
b1111111111111111111111111111111111111111111111111111111111111011 -
b110 (
b1111111111111111111111111111111111111111111111111111111111111011 "
b10 $
b1010 B
1!
#80
0!
#85
b111 (
b11 %
1!
#90
0!
#95
1,
0&
b1010 )
b1010 -
b0 (
b1111 #
b1111 .
b1 %
b1010 "
b101 $
1!
#100
0!
#105
b1111 /
b1111 )
1&
1+
0,
b1010 -
b1010 (
b0 #
b0 .
b0 %
b0 @
b0 ?
b0 >
b0 =
b0 <
b0 ;
1!
#110
0!
#115
b0 /
b1101 )
0&
0+
1,
b1101 -
b11 (
b1111111111111111111111111111111111111111111111111111111111111011 #
b1111111111111111111111111111111111111111111111111111111111111011 .
b110 %
1!
#120
0!
#125
b1111111111111111111111111111111111111111111111111111111111111011 /
b1111111111111111111111111111111111111111111111111111111111111011 )
1&
1+
0,
b1101 -
b1011 (
b1010 #
b1010 .
b11 %
b11111111 @
b11111111 ?
b11111111 >
1!
#130
0!
#135
b0 /
b0 )
0&
0+
0,
b0 -
b1000 (
b100 $
b101 %
1!
#140
0!
#145
1&
b11110 )
b11110 -
b1101 (
b1111 #
b1111 .
b1010 %
b1111 "
b1 $
1!
#150
0!
#155
b0 )
0&
b0 -
b0 (
b0 "
b0 $
b0 #
b0 .
b0 %
1!
